{
  "fields": [
    {
      "id": "dynatrace_host",
      "type": "string",
      "label": "Dynatrace Host"
    },
    {
      "id": "dynatrace_token",
      "type": "string",
      "label": "Dynatrace Token",
      "secret": true
    }
  ],
  "required": [
    "dynatrace_host",
    "dynatrace_token"
  ]
}
